Yuhan Wu's Personal Website: US Unemployment Analysis
…
Seasonal Plot Making

# load data from FRED
usunemp <- read_csv("./data/unempl.csv",show_col_types = FALSE)

The data I used is from the Unemployment
Rate data set provided by FRED.

This is the raw data from the FRED data set.

# A tibble: 895 × 2
   DATE       UNRATE
   <date>      <dbl>
 1 1948-01-01    3.4
 2 1948-02-01    3.8
 3 1948-03-01    4  
 4 1948-04-01    3.9
 5 1948-05-01    3.5
 6 1948-06-01    3.6
 7 1948-07-01    3.6
 8 1948-08-01    3.9
 9 1948-09-01    3.8
10 1948-10-01    3.7
# … with 885 more rows
# ℹ Use `print(n = ...)` to see more rows
…
us_unemployment_1 <- usunemp |>
  mutate(DATE = as.double(stri_sub(DATE,0,4))) |>
  filter(DATE >= 2016 & DATE < 2021)|>
  select(UNRATE)

The resulting tibble is shown below, which contains a total of 60
rows.

(5 years * 12 months/years)

# A tibble: 60 × 1
   UNRATE
    <dbl>
 1    4.8
 2    4.9
 3    5  
 4    5.1
 5    4.8
 6    4.9
 7    4.8
 8    4.9
 9    5  
10    4.9
# … with 50 more rows
# ℹ Use `print(n = ...)` to see more rows
…
